C:\Users\tawfi\OneDrive\Bureau\gitlabci\VehicleBooking\src\main\java\com\project\bookingcar\TestData.java
C:\Users\tawfi\OneDrive\Bureau\gitlabci\VehicleBooking\src\main\java\com\project\bookingcar\service\BookingService.java
C:\Users\tawfi\OneDrive\Bureau\gitlabci\VehicleBooking\src\main\java\com\project\bookingcar\service\UserService.java
C:\Users\tawfi\OneDrive\Bureau\gitlabci\VehicleBooking\src\main\java\com\project\bookingcar\jpa\domain\User.java
C:\Users\tawfi\OneDrive\Bureau\gitlabci\VehicleBooking\src\main\java\com\project\bookingcar\jpa\repository\Userrepository.java
C:\Users\tawfi\OneDrive\Bureau\gitlabci\VehicleBooking\src\main\java\com\project\bookingcar\jpa\domain\Vehicle.java
C:\Users\tawfi\OneDrive\Bureau\gitlabci\VehicleBooking\src\main\java\com\project\bookingcar\jpa\domain\Booking.java
C:\Users\tawfi\OneDrive\Bureau\gitlabci\VehicleBooking\src\main\java\com\project\bookingcar\controller\BookingController.java
C:\Users\tawfi\OneDrive\Bureau\gitlabci\VehicleBooking\src\main\java\com\project\bookingcar\controller\VehicleController.java
C:\Users\tawfi\OneDrive\Bureau\gitlabci\VehicleBooking\src\main\java\com\project\bookingcar\service\VehicleService.java
C:\Users\tawfi\OneDrive\Bureau\gitlabci\VehicleBooking\src\main\java\com\project\bookingcar\jpa\repository\BookingRepository.java
C:\Users\tawfi\OneDrive\Bureau\gitlabci\VehicleBooking\src\main\java\com\project\bookingcar\controller\UserController.java
C:\Users\tawfi\OneDrive\Bureau\gitlabci\VehicleBooking\src\main\java\com\project\bookingcar\BookingCarServiceApplication.java
C:\Users\tawfi\OneDrive\Bureau\gitlabci\VehicleBooking\src\main\java\com\project\bookingcar\jpa\repository\VehicleRepository.java
